{
	"header": {
		"config_name": "Dungeon Mapster Forest",
		"version": "v1.0",
    "asset_style": "Dungeon Mapster"
  },
	"core": {
		"baseline_map_file": "baseline-DM.dungeondraft_map",
		"output_file": "test_output.dungeondraft_map",
		"map_size": [32,32]
	},

	"perlin_noise": {
		"permutation_size": 256,
		"size": 768,
		"granularity": 128,
		"octaves": 4,
		"store_file": "perlin_store.txt",
		"use_store": false,
		"output_perlin_ppm": true,
		"output_perlin_ppm_filename": "simpleperlin.ppm",
        "modify": {
			"modify_perlin": true,
			"type": "Canyon",
			"levels": [0.55,0.45]
		}
	},

	"poissondisk": {
		"max_tries": 30
	},

  "trees": {
    "tree_type_list": [
			{
      	"mindistance": 2.2,
				"probability": 1.0,
				"upper_perlin_level": 0.35,
				"lower_perlin_level": 0.0,
      	"randomrotation": false,
				"size": [1.0,1.25],
				"layer": 400,
				"list": [
                    "res://packs/UaBgpd4q/textures/objects/BrownTree1.png",
					"res://packs/UaBgpd4q/textures/objects/BrownTree2.png",
					"res://packs/UaBgpd4q/textures/objects/BrownTree3.png",
					"res://packs/UaBgpd4q/textures/objects/BrownTree7.png",
					"res://packs/UaBgpd4q/textures/objects/BrownTree8.png",
					"res://packs/UaBgpd4q/textures/objects/YellowTree1.png",
					"res://packs/UaBgpd4q/textures/objects/YellowTree2.png",
					"res://packs/UaBgpd4q/textures/objects/YellowTree3.png",
					"res://packs/UaBgpd4q/textures/objects/YellowTree7.png",
					"res://packs/UaBgpd4q/textures/objects/YellowTree8.png",
					"res://packs/UaBgpd4q/textures/objects/BrightYellowTree1.png",
					"res://packs/UaBgpd4q/textures/objects/BrightYellowTree2.png",
					"res://packs/UaBgpd4q/textures/objects/BrightYellowTree3.png",
					"res://packs/UaBgpd4q/textures/objects/BrightYellowTree7.png",
					"res://packs/UaBgpd4q/textures/objects/BrightYellowTree8.png",
                    "res://packs/UaBgpd4q/textures/objects/UmberTree1.png",
					"res://packs/UaBgpd4q/textures/objects/UmberTree2.png",
					"res://packs/UaBgpd4q/textures/objects/UmberTree3.png",
					"res://packs/UaBgpd4q/textures/objects/UmberTree7.png",
					"res://packs/UaBgpd4q/textures/objects/UmberTree8.png"

				]

    	},
			{
				"mindistance": 1.5,
				"probability": 0.8,
				"upper_perlin_level": 0.45,
				"lower_perlin_level": 0.35,
				"randomrotation": false,
				"size": [0.8,0.9],
				"layer": 300,
				"list": [

                    "res://packs/UaBgpd4q/textures/objects/BrownTree2.png",
					"res://packs/UaBgpd4q/textures/objects/BrownTree3.png",
					"res://packs/UaBgpd4q/textures/objects/BrownTree4.png",

					"res://packs/UaBgpd4q/textures/objects/YellowTree2.png",
					"res://packs/UaBgpd4q/textures/objects/YellowTree3.png",
					"res://packs/UaBgpd4q/textures/objects/YellowTree4.png",

					"res://packs/UaBgpd4q/textures/objects/BrightYellowTree2.png",
					"res://packs/UaBgpd4q/textures/objects/BrightYellowTree3.png",
					"res://packs/UaBgpd4q/textures/objects/BrightYellowTree4.png",

					"res://packs/UaBgpd4q/textures/objects/UmberTree2.png",
					"res://packs/UaBgpd4q/textures/objects/UmberTree3.png",
					"res://packs/UaBgpd4q/textures/objects/UmberTree4.png"


				]

			}
		]
  },
	"clumps": [
		{
			"mindistance": 4.0,
			"probability": 0.25,
			"upper_perlin_level": 0.95,
			"lower_perlin_level": 0.2,
			"size": [1.0,1.0],
			"layer": 200,
			"primary_asset_list": [
				{
					"texture": "res://packs/MT2lPkiK/textures/objects/Highland/GroundRocks-11a.png",
					"num_secondary_assets_range": [2,3],
					"secondary_assets_dist_px": 180,
					"secondary_assets_dist_variation_px": 45,
					"randomrotation": true,
					"randommirror": true
				},
				{
					"texture": "res://packs/MT2lPkiK/textures/objects/Highland/GroundRocks-12a.png",
					"num_secondary_assets_range": [2,3],
					"secondary_assets_dist_px": 180,
					"secondary_assets_dist_variation_px": 45,
					"randomrotation": true,
					"randommirror": true
				},
				{
					"texture": "res://packs/MT2lPkiK/textures/objects/Highland/GroundRocks-13a.png",
					"num_secondary_assets_range": [2,3],
					"secondary_assets_dist_px": 180,
					"secondary_assets_dist_variation_px": 45,
					"randomrotation": true,
					"randommirror": true
				},
				{
					"texture": "res://packs/MT2lPkiK/textures/objects/Highland/GroundRocks-14a.png",
					"num_secondary_assets_range": [2,4],
					"secondary_assets_dist_px": 250,
					"secondary_assets_dist_variation_px": 45,
					"randomrotation": true,
					"randommirror": true
				},
				{
					"texture": "res://packs/MT2lPkiK/textures/objects/Highland/GroundRocks-15a.png",
					"num_secondary_assets_range": [2,3],
					"secondary_assets_dist_px": 200,
					"secondary_assets_dist_variation_px": 45,
					"randomrotation": true,
					"randommirror": true
				},
				{
					"texture": "res://packs/MT2lPkiK/textures/objects/Highland/GroundRocks-16a.png",
					"num_secondary_assets_range": [2,3],
					"secondary_assets_dist_px": 180,
					"secondary_assets_dist_variation_px": 45,
					"randomrotation": true,
					"randommirror": true
				},
				{
					"texture": "res://packs/MT2lPkiK/textures/objects/Highland/GroundRocks-17a.png",
					"num_secondary_assets_range": [2,3],
					"secondary_assets_dist_px": 180,
					"secondary_assets_dist_variation_px": 45,
					"randomrotation": true,
					"randommirror": true
				},
				{
					"texture": "res://packs/MT2lPkiK/textures/objects/Highland/GroundRocks-18a.png",
					"num_secondary_assets_range": [2,3],
					"secondary_assets_dist_px": 180,
					"secondary_assets_dist_variation_px": 45,
					"randomrotation": true,
					"randommirror": true
				},
				{
					"texture": "res://packs/MT2lPkiK/textures/objects/Highland/GroundRocks-19a.png",
					"num_secondary_assets_range": [2,3],
					"secondary_assets_dist_px": 180,
					"secondary_assets_dist_variation_px": 45,
					"randomrotation": true,
					"randommirror": true
				},
				{
					"texture": "res://packs/MT2lPkiK/textures/objects/Highland/GroundRocks-20a.png",
					"num_secondary_assets_range": [2,3],
					"secondary_assets_dist_px": 180,
					"secondary_assets_dist_variation_px": 45,
					"randomrotation": true,
					"randommirror": true
				}
			],
			"secondary_asset_layer": 100,
			"secondary_randomrotation": true,
			"secondary_randommirror": true,
			"secondary_asset_list": [
				"res://packs/MT2lPkiK/textures/objects/Highland/GroundRocks,Tiny-01a.png",
				"res://packs/MT2lPkiK/textures/objects/Highland/GroundRocks,Tiny-02a.png",
				"res://packs/MT2lPkiK/textures/objects/Highland/GroundRocks,Tiny-03a.png",
				"res://packs/MT2lPkiK/textures/objects/Highland/GroundRocks,Tiny-04a.png",
				"res://packs/MT2lPkiK/textures/objects/Highland/GroundRocks,Tiny-05a.png",
				"res://packs/MT2lPkiK/textures/objects/Highland/GroundRocks,Tiny-06a.png"
			]
		}
	],


	"clutter": [
		{
			"mindistance": 2.2,
			"probability": 0.15,
			"upper_perlin_level": 0.65,
			"lower_perlin_level": 0.2,
			"randomrotation": true,
			"randommirror": true,
			"size": [1.0,1.0],
			"layer": -100,
			"list": [
				"res://packs/MT2lPkiK/textures/objects/Highland/GroundRocks,Tiny-01a.png",
				"res://packs/MT2lPkiK/textures/objects/Highland/GroundRocks,Tiny-02a.png",
				"res://packs/MT2lPkiK/textures/objects/Highland/GroundRocks,Tiny-03a.png",
				"res://packs/MT2lPkiK/textures/objects/Highland/GroundRocks,Tiny-04a.png",
				"res://packs/MT2lPkiK/textures/objects/Highland/GroundRocks,Tiny-05a.png",
				"res://packs/MT2lPkiK/textures/objects/Highland/GroundRocks,Tiny-06a.png",
				"res://packs/MT2lPkiK/textures/objects/Highland/GroundRocks,Medium-01a.png",
				"res://packs/MT2lPkiK/textures/objects/Highland/GroundRocks,Medium-02a.png",
				"res://packs/MT2lPkiK/textures/objects/Highland/GroundRocks,Medium-03a.png",
				"res://packs/MT2lPkiK/textures/objects/Highland/GroundRocks,Medium-04a.png",
				"res://packs/MT2lPkiK/textures/objects/Highland/GroundRocks,Medium-05a.png"
			]
		},
		{
			"mindistance": 2.5,
			"probability": 0.2,
			"upper_perlin_level": 0.55,
			"lower_perlin_level": 0.2,
			"randomrotation": false,
			"randommirror": true,
			"size": [1.0,1.0],
			"layer": 100,
			"list": [
				"res://packs/MT2lPkiK/textures/objects/Highland/GroundRocks-01a.png",
				"res://packs/MT2lPkiK/textures/objects/Highland/GroundRocks-02a.png",
				"res://packs/MT2lPkiK/textures/objects/Highland/GroundRocks-03a.png",
				"res://packs/MT2lPkiK/textures/objects/Highland/GroundRocks-04a.png",
				"res://packs/MT2lPkiK/textures/objects/Highland/GroundRocks-05a.png",
				"res://packs/MT2lPkiK/textures/objects/Highland/GroundRocks-07a.png",
				"res://packs/MT2lPkiK/textures/objects/Highland/GroundRocks-08a.png",
				"res://packs/MT2lPkiK/textures/objects/Highland/GroundRocks-09a.png",
				"res://packs/MT2lPkiK/textures/objects/Highland/GroundRocks-10a.png"
			]
		},
		{
			"mindistance": 2.0,
			"probability": 0.45,
			"upper_perlin_level": 0.85,
			"lower_perlin_level": 0.2,
			"randomrotation": false,
			"randommirror": true,
			"size": [1.0,1.0],
			"layer": 100,
			"list": [
				"res://packs/MT2lPkiK/textures/objects/GrassSplotch,Gold-01.webp",
				"res://packs/MT2lPkiK/textures/objects/GrassSplotch,Gold-02.webp"
			]

		},
		{
			"mindistance": 3.0,
			"probability": 0.25,
			"upper_perlin_level": 0.9,
			"lower_perlin_level": 0.2,
			"randomrotation": true,
			"randommirror": true,
			"size": [1.0,1.0],
			"layer": 100,
			"list": [
				"res://packs/HmdvF6ma/textures/objects/FlowerBunch,Yellow-1.png",
				"res://packs/HmdvF6ma/textures/objects/FlowerBunch,Yellow-2.png",
				"res://packs/HmdvF6ma/textures/objects/FlowerBunch,Yellow-3.png",
				"res://packs/HmdvF6ma/textures/objects/FlowerBunch,Yellow-4.png",
				"res://packs/HmdvF6ma/textures/objects/FlowerBunch,Yellow-5.png",
				"res://packs/HmdvF6ma/textures/objects/FlowerBunch,Yellow-6.png"

			]

		}

	],

	"terrain": {
		"make_terrain": true,
		"smooth_blending": false,
		"boundaries": [180,140,40],
		"weights": [0.7,0.7,0.75,0.4],
		"blend_distances": [35,35,20],

		"slots": [
			{
				"name": "Highest under trees",
				"id": 0,
				"overwrite_slot": true,
				"colour": [255,60,60],
				"texture": "res://packs/reLCeylN/textures/terrain/DM Dirt.webp"
			},
			{
				"name": "Under trees",
				"id": 1,
				"overwrite_slot": true,
				"colour": [255,215,100],
				"texture": "res://packs/reLCeylN/textures/terrain/Grass - Gold.webp"
			},
			{
				"name": "Primary Open Space",
				"id": 2,
				"overwrite_slot": true,
				"colour": [120,255,120],
				"texture": "res://packs/reLCeylN/textures/terrain/Grass - Pale Gold.webp"
			},
			{
				"name": "Low ground",
				"id": 3,
				"overwrite_slot": true,
				"colour": [120,120,255],
				"texture": "res://packs/reLCeylN/textures/terrain/Dirt - Sickly Green.webp"
			}
		]
	},
	"road": {
		"make_road": true,
		"step_distance": 3,
		"progress_weight": 0.15,
		"fov_angle": 60.0,
		"margin_percentage": 0.15,
		"width": 5,
		"bezier_density": 0.015,
		"edge": {
			"roadedge_width": 2,
			"edge_terrain_value": 90,
			"edge_path": {
				
				"reverse_direction": true,
				"texture": "res://packs/Vo6Bdqzw/textures/paths/pale gold grass path.webp",
				"width": 512,
				"layer": 200
				
			}
			
		},
		"terrain": {
			"vary_road_terrain": true,
			"edge_terrain_1_value_255": 240,
			"terrain_1_lowest_value": 110,
			"terrain_1_highest_value": 160
		},
		"river": {
			"make_river": true,
			"deep_color": "ff9cb7ab",
			"shallow_color": "ffb9e3ca",
			"blend_distance": 2.0,
			"water_pattern": {
				"use_water_pattern": false,
				"layer": 100,
				"rotation_deg": 0.0,
				"texture": "res://packs/OuVKYXRN/textures/patterns/normal/Sea Texture Light.webp",
				"colour": "ffffffff"
			},
			"edge_flowpath": {
				"texture": "res://packs/OuVKYXRN/textures/paths/Water-Path-2-d7fee9.png",
				"width": 268,
				"offset": 0.2
			},
			"side_flowpath": {
				"texture": "res://packs/OuVKYXRN/textures/paths/Water-Path-2-d7fee9.png",
				"width": 268,
                
				"flow_density": 0.6,
				"reverse_direction" : true,
				"randomdirection": true,
				"end_type": "Shrink",
				"offset": 0.7,
				"flow_length": 7,
				"flow_length_variation": 1,
				"gap": 4
			},
			"flowpath": {
				"texture": "res://packs/OuVKYXRN/textures/paths/Water-Path-2-d7fee9.png",
				"width": 268,
				"flow_density": 0.8,
				"randomdirection": true,
				"end_type": "Shrink",
				"flow_length": 5,
				"flow_length_variation": 1,
				"num_flow_variants": 5,
				"min_distance_from_middle": 0.25,
				"min_distance_from_edge": 1.25
			}
		}
	},
    "hills": {
		"make_hills": true,
		"min_length": 10,
		"hill_list": [
			
			
			{
				"level": 0.55,
				"texture": "res://packs/w2LGDZZq/textures/paths/Highland Rocks.png",
				"width": 4096,
				"reverse_direction": false,
				"smoothing_factor": 1,
				"contour_filter": 8,
				"layer": 200,
                "offset_paths": [
					{
						"reverse_direction": true,
						"texture": "res://packs/Vo6Bdqzw/textures/paths/pale gold grass path.webp",
						"width": 512,
						"layer": 200,
						"offset": -0.75
                	}
				]
			},

			{
				"level": 0.45,
				"texture": "res://packs/w2LGDZZq/textures/paths/Highland Rocks.png",
				"width": 4096,
				"reverse_direction": false,
				"smoothing_factor": 1,
				"contour_filter": 15,
				"layer": 200,
                "flow_density": 0.4,
				"randomdirection": false,
				"end_type": "Shrink",
				"flow_length": 20,
				"flow_length_variation": 5,
				"type": "Intermittent",
				"gap": 0.5
			}
			
			

		]
	}

}
