{
	"header": {
		"config_name": "Dungeon Mapster Island",
		"version": "v1.0",
    "asset_style": "Dungeon Mapster"
  },
	"core": {
		"baseline_map_file": "baseline-DM.dungeondraft_map",
		"output_file": "test_output.dungeondraft_map",
		"map_size": [32,32]
	},

	"perlin_noise": {
		"permutation_size": 256,
		"size": 768,
		"granularity": 128,
		"octaves": 4,
		"store_file": "perlin_store.txt",
		"use_store": false,
		"output_perlin_ppm": true,
		"output_perlin_ppm_filename": "simpleperlin.ppm",
		"modify": {
			"modify_perlin": true,
			"type": "Island",
			"radius_fraction": 0.5,
			"outputppmfile": true,
			"output_modify_perlin_ppm_filename": "modifiedperlin.ppm"
		}
	},

	"poissondisk": {
		"max_tries": 30
	},

	"lighting": {
		"ambient_light": "ff646464",
		"draw_lights": false,
		"light_margin_percentage": 0.1,
		"primary_light": {
			"light_intensity": 0.5,
			"light_colour": "82eaeaea",
			"light_radius": 15,
			"light_density": 0.21
		}
	},

  "trees": {
    "tree_type_list": [
			{
      	"mindistance": 3.5,
				"probability": 1.0,
				"upper_perlin_level": 0.4,
				"lower_perlin_level": 0.0,
      	"randomrotation": false,
				"randommirror": true,
				"size": [1.0,1.0],
				"layer": 400,
				"list": [
					"res://packs/tGDFzC0U/textures/objects/wetland-big-tree-1.png",
					"res://packs/tGDFzC0U/textures/objects/wetland-big-tree-2.png",
					"res://packs/tGDFzC0U/textures/objects/wetland-big-tree-3.png",
					"res://packs/tGDFzC0U/textures/objects/wetland-big-tree-4.png",
					"res://packs/tGDFzC0U/textures/objects/wetland-big-tree-5.png",
					"res://packs/tGDFzC0U/textures/objects/wetland-big-tree-6.png"

				]

    	},
			{
				"mindistance": 2.0,
				"probability": 0.4,
				"upper_perlin_level": 0.5,
				"lower_perlin_level": 0.42,
				"randomrotation": false,
				"randommirror": true,
				"size": [1.0,1.0],
				"layer": 400,
				"list": [
					"res://packs/tGDFzC0U/textures/objects/wetland-small-tree-1.png",
					"res://packs/tGDFzC0U/textures/objects/wetland-small-tree-2.png",
					"res://packs/tGDFzC0U/textures/objects/wetland-small-tree-3.png",
					"res://packs/tGDFzC0U/textures/objects/wetland-small-tree-4.png",
					"res://packs/tGDFzC0U/textures/objects/wetland-small-tree-5.png"

				]

			}
		]
  },
	"clumps": [
		{
			"mindistance": 1.0,
			"probability": 0.45,
			"upper_perlin_level": 0.25,
			"lower_perlin_level": 0.0,
			"size": [1.0,1.0],
			"layer": 200,
			"primary_asset_list": [
				{
					"texture": "res://packs/MT2lPkiK/textures/objects/Highland/GroundRocks-11a.png",
					"num_secondary_assets_range": [2,3],
					"secondary_assets_dist_px": 180,
					"secondary_assets_dist_variation_px": 45,
					"randomrotation": true,
					"randommirror": true
				},
				{
					"texture": "res://packs/MT2lPkiK/textures/objects/Highland/GroundRocks-12a.png",
					"num_secondary_assets_range": [2,3],
					"secondary_assets_dist_px": 180,
					"secondary_assets_dist_variation_px": 45,
					"randomrotation": true,
					"randommirror": true
				},
				{
					"texture": "res://packs/MT2lPkiK/textures/objects/Highland/GroundRocks-13a.png",
					"num_secondary_assets_range": [2,3],
					"secondary_assets_dist_px": 180,
					"secondary_assets_dist_variation_px": 45,
					"randomrotation": true,
					"randommirror": true
				},
				{
					"texture": "res://packs/MT2lPkiK/textures/objects/Highland/GroundRocks-14a.png",
					"num_secondary_assets_range": [2,4],
					"secondary_assets_dist_px": 300,
					"secondary_assets_dist_variation_px": 25,
					"randomrotation": true,
					"randommirror": true
				},
				{
					"texture": "res://packs/MT2lPkiK/textures/objects/Highland/GroundRocks-15a.png",
					"num_secondary_assets_range": [2,3],
					"secondary_assets_dist_px": 200,
					"secondary_assets_dist_variation_px": 45,
					"randomrotation": true,
					"randommirror": true
				},
				{
					"texture": "res://packs/MT2lPkiK/textures/objects/Highland/GroundRocks-16a.png",
					"num_secondary_assets_range": [2,3],
					"secondary_assets_dist_px": 180,
					"secondary_assets_dist_variation_px": 45,
					"randomrotation": true,
					"randommirror": true
				},
				{
					"texture": "res://packs/MT2lPkiK/textures/objects/Highland/GroundRocks-17a.png",
					"num_secondary_assets_range": [2,3],
					"secondary_assets_dist_px": 180,
					"secondary_assets_dist_variation_px": 45,
					"randomrotation": true,
					"randommirror": true
				},
				{
					"texture": "res://packs/MT2lPkiK/textures/objects/Highland/GroundRocks-18a.png",
					"num_secondary_assets_range": [2,3],
					"secondary_assets_dist_px": 180,
					"secondary_assets_dist_variation_px": 45,
					"randomrotation": true,
					"randommirror": true
				},
				{
					"texture": "res://packs/MT2lPkiK/textures/objects/Highland/GroundRocks-19a.png",
					"num_secondary_assets_range": [2,3],
					"secondary_assets_dist_px": 180,
					"secondary_assets_dist_variation_px": 45,
					"randomrotation": true,
					"randommirror": true
				},
				{
					"texture": "res://packs/MT2lPkiK/textures/objects/Highland/GroundRocks-20a.png",
					"num_secondary_assets_range": [2,3],
					"secondary_assets_dist_px": 180,
					"secondary_assets_dist_variation_px": 45,
					"randomrotation": true,
					"randommirror": true
				}
			],
			"secondary_asset_layer": 100,
			"secondary_randomrotation": true,
			"secondary_randommirror": true,
			"secondary_asset_list": [
				"res://packs/MT2lPkiK/textures/objects/Highland/GroundRocks,Tiny-01a.png",
				"res://packs/MT2lPkiK/textures/objects/Highland/GroundRocks,Tiny-02a.png",
				"res://packs/MT2lPkiK/textures/objects/Highland/GroundRocks,Tiny-03a.png",
				"res://packs/MT2lPkiK/textures/objects/Highland/GroundRocks,Tiny-04a.png",
				"res://packs/MT2lPkiK/textures/objects/Highland/GroundRocks,Tiny-05a.png",
				"res://packs/MT2lPkiK/textures/objects/Highland/GroundRocks,Tiny-06a.png"
			]
		}
	],


	"clutter": [
		{
			"mindistance": 2.0,
			"probability": 0.35,
			"upper_perlin_level": 0.6,
			"lower_perlin_level": 0.0,
			"randomrotation": true,
			"randommirror": true,
			"size": [1.0,1.0],
			"layer": -100,
			"list": [
				"res://packs/MT2lPkiK/textures/objects/GroundRuffle-05.webp",
				"res://packs/MT2lPkiK/textures/objects/GroundRuffle-08.webp",
				"res://packs/MT2lPkiK/textures/objects/GroundRuffle-10.webp",
				"res://packs/MT2lPkiK/textures/objects/GroundRuffle-11.webp",
				"res://packs/MT2lPkiK/textures/objects/GroundRuffle-12.webp"

			]
		},
		{
			"mindistance": 2.0,
			"probability": 0.3,
			"upper_perlin_level": 0.5,
			"lower_perlin_level": 0.0,
			"randomrotation": true,
			"randommirror": true,
			"size": [1.0,1.0],
			"layer": 100,
			"list": [
				"res://packs/VgmmD3r7/textures/objects/Log.png",
				"res://packs/VgmmD3r7/textures/objects/Log-1.png",
				"res://packs/VgmmD3r7/textures/objects/Log-2.png",
				"res://packs/VgmmD3r7/textures/objects/Log-3.png",
				"res://packs/VgmmD3r7/textures/objects/Log-4.png"
			]
		},
		{
			"mindistance": 2.2,
			"probability": 0.35,
			"upper_perlin_level": 0.85,
			"lower_perlin_level": 0.0,
			"randomrotation": true,
			"randommirror": true,
			"size": [1.0,1.0],
			"layer": -100,
			"list": [
				"res://packs/MT2lPkiK/textures/objects/Highland/GroundRocks,Tiny-01a.png",
				"res://packs/MT2lPkiK/textures/objects/Highland/GroundRocks,Tiny-02a.png",
				"res://packs/MT2lPkiK/textures/objects/Highland/GroundRocks,Tiny-03a.png",
				"res://packs/MT2lPkiK/textures/objects/Highland/GroundRocks,Tiny-04a.png",
				"res://packs/MT2lPkiK/textures/objects/Highland/GroundRocks,Tiny-05a.png",
				"res://packs/MT2lPkiK/textures/objects/Highland/GroundRocks,Tiny-06a.png",
				"res://packs/MT2lPkiK/textures/objects/Highland/GroundRocks,Medium-01a.png",
				"res://packs/MT2lPkiK/textures/objects/Highland/GroundRocks,Medium-02a.png",
				"res://packs/MT2lPkiK/textures/objects/Highland/GroundRocks,Medium-03a.png",
				"res://packs/MT2lPkiK/textures/objects/Highland/GroundRocks,Medium-04a.png",
				"res://packs/MT2lPkiK/textures/objects/Highland/GroundRocks,Medium-05a.png"
			]
		},
		{
			"mindistance": 1.0,
			"probability": 0.0,
			"upper_perlin_level": 0.7,
			"lower_perlin_level": 0.48,
			"randomrotation": false,
			"randommirror": true,
			"size": [1.0,1.0],
			"layer": 100,
			"list": [
				"res://packs/VgmmD3r7/textures/objects/River Rush.png",
				"res://packs/VgmmD3r7/textures/objects/River Rush-01.png",
				"res://packs/VgmmD3r7/textures/objects/River Rush-02.png",
				"res://packs/VgmmD3r7/textures/objects/River Rush-03.png",
				"res://packs/VgmmD3r7/textures/objects/River Rush-04.png",
				"res://packs/VgmmD3r7/textures/objects/River Rush-05.png",
				"res://packs/VgmmD3r7/textures/objects/River Rush-06.png",
				"res://packs/VgmmD3r7/textures/objects/River Rush-07.png",
				"res://packs/VgmmD3r7/textures/objects/River Rush-08.png",
				"res://packs/VgmmD3r7/textures/objects/River Rush-09.png",
				"res://packs/VgmmD3r7/textures/objects/River Rush-10.png",
				"res://packs/VgmmD3r7/textures/objects/River Rush-11.png",
				"res://packs/VgmmD3r7/textures/objects/River Rush-12.png",
				"res://packs/VgmmD3r7/textures/objects/River Rush-13.png",
				"res://packs/VgmmD3r7/textures/objects/River Rush-14.png",
				"res://packs/VgmmD3r7/textures/objects/River Rush-15.png"
			]
		},

		{
			"mindistance": 1.5,
			"probability": 0.0,
			"upper_perlin_level": 1.0,
			"lower_perlin_level": 0.55,
			"randomrotation": true,
			"randommirror": true,
			"size": [1.0,1.0],
			"layer": 100,
			"list": [
				"res://packs/VgmmD3r7/textures/objects/Waterlily.png",
				"res://packs/VgmmD3r7/textures/objects/Waterlily-1.png",
				"res://packs/VgmmD3r7/textures/objects/Waterlily-2.png",
				"res://packs/VgmmD3r7/textures/objects/Waterlily-3.png",
				"res://packs/VgmmD3r7/textures/objects/Waterlily-4.png",
				"res://packs/VgmmD3r7/textures/objects/Waterlily-5.png",
				"res://packs/VgmmD3r7/textures/objects/Waterlily-6.png",
				"res://packs/VgmmD3r7/textures/objects/Waterlily-7.png"
			]
		},
		{
			"mindistance": 1.5,
			"probability": 0.65,
			"upper_perlin_level": 0.72,
			"lower_perlin_level": 0.0,
			"randomrotation": false,
			"randommirror": true,
			"size": [1.0,1.0],
			"layer": 100,
			"list": [
				"res://packs/MT2lPkiK/textures/objects/GrassSplotch-01.webp",
				"res://packs/MT2lPkiK/textures/objects/GrassSplotch-02.webp"
			]

		},
		{
			"mindistance": 3.0,
			"probability": 0.55,
			"upper_perlin_level": 0.65,
			"lower_perlin_level": 0.0,
			"randomrotation": true,
			"randommirror": true,
			"size": [1.0,1.0],
			"layer": 100,
			"custom_colour_list": ["ffaf8b9d","ffd39086","fff1f1d5"],

			"list": [
				"res://packs/HmdvF6ma/textures/objects/FlowerBunch,Yellow-1.png",
				"res://packs/HmdvF6ma/textures/objects/FlowerBunch,Yellow-2.png",
				"res://packs/HmdvF6ma/textures/objects/FlowerBunch,Yellow-3.png",
				"res://packs/HmdvF6ma/textures/objects/FlowerBunch,Yellow-4.png",
				"res://packs/HmdvF6ma/textures/objects/FlowerBunch,Yellow-5.png",
				"res://packs/HmdvF6ma/textures/objects/FlowerBunch,Yellow-6.png",
				"res://packs/HmdvF6ma/textures/objects/colourable/FlowerBunch,Colourable-1.png",
				"res://packs/HmdvF6ma/textures/objects/colourable/FlowerBunch,Colourable-2.png",
				"res://packs/HmdvF6ma/textures/objects/colourable/FlowerBunch,Colourable-3.png",
				"res://packs/HmdvF6ma/textures/objects/colourable/FlowerBunch,Colourable-4.png",
				"res://packs/HmdvF6ma/textures/objects/colourable/FlowerBunch,Colourable-5.png",
				"res://packs/HmdvF6ma/textures/objects/colourable/FlowerBunch,Colourable-6.png"

			]

		},
		{
			"mindistance": 2.5,
			"probability": 0.3,
			"upper_perlin_level": 0.6,
			"lower_perlin_level": 0.0,
			"randomrotation": true,
			"randommirror": true,
			"size": [1.0,1.0],
			"layer": 200,
			"list": [
				"res://packs/VgmmD3r7/textures/objects/CC Bushes, No ink.png",
				"res://packs/VgmmD3r7/textures/objects/CC Bushes, No ink-1.png",
				"res://packs/VgmmD3r7/textures/objects/CC Bushes, No ink-2.png",
				"res://packs/VgmmD3r7/textures/objects/CC Bushes, No ink-3.png",
				"res://packs/VgmmD3r7/textures/objects/CC Bushes, No ink-4.png",
				"res://packs/VgmmD3r7/textures/objects/CC Bushes, No ink-5.png"

			]

		}




	],

	"terrain": {
		"make_terrain": true,
		"smooth_blending": false,
		"high_level": 230,
		"low_level": 55,
		"flex_level": 10,
		"open_area_weight": 0.20,
		"highest_weight": 0.7,
		"low_weight": 0.9,
		"low_flex_factor": 0.75,
		"high_flex_factor": 0.5,
		"boundaries": [200,80,40],
		"weights": [0.7,0.8,0.7,0.7],
		"blend_distances": [35,20,20],

		"slots": [
			{
				"name": "Highest under trees",
				"id": 0,
				"overwrite_slot": true,
				"colour": [255,60,60],
				"texture": "res://packs/MT2lPkiK/textures/terrain/DDishGrass.webp"
			},
			{
				"name": "Under trees",
				"id": 1,
				"overwrite_slot": true,
				"colour": [255,215,100],
				"texture": "res://packs/reLCeylN/textures/terrain/DM Grass.webp"
			},
			{
				"name": "Primary Open Space",
				"id": 2,
				"overwrite_slot": true,
				"colour": [120,255,120],
				"texture": "res://packs/OuVKYXRN/textures/terrain/Sand Texture.webp"
			},
			{
				"name": "Low ground",
				"id": 3,
				"overwrite_slot": true,
				"colour": [120,120,255],
				"texture": "res://packs/OuVKYXRN/textures/terrain/Sand Texture.webp"
			}
		]
	},
	"road": {
		"make_road": false,
		"step_distance": 3,
		"progress_weight": 0.25,
		"fov_angle": 60.0,
		"margin_percentage": 0.15,
		"width": 5,
		"bezier_density": 0.02,
		"edge": {
			"roadedge_width": 3,
			"edge_terrain_value": 90,
			"edge_texture": "res://packs/Vo6Bdqzw/textures/paths/grass path.webp",
			"edge_texture_width": 512,
			"reverse_edge_texture": false
		},
		"terrain": {
			"vary_road_terrain": true,
			"edge_terrain_1_value_255": 240,
			"terrain_1_lowest_value": 110,
			"terrain_1_highest_value": 160
		},
		"river": {
			"make_river": true,
			"deep_color": "ff9cb7ab",
			"shallow_color": "ffb9e3ca",
			"blend_distance": 2.0,
			"water_pattern": {
				"use_water_pattern": false,
				"layer": 100,
				"rotation_deg": 0.0,
				"texture": "res://packs/OuVKYXRN/textures/patterns/normal/Sea Texture Light.webp",
				"colour": "ffffffff"
			},
			"edge_flowpath": {
				"texture": "res://packs/OuVKYXRN/textures/paths/Water-Path-2-d7fee9.png",
				"width": 268,
				"offset": 0.2
			},
			"side_flowpath": {
				"texture": "res://packs/OuVKYXRN/textures/paths/Water-Path-2-d7fee9.png",
				"width": 268,
				"flow_density": 0.5,
				"reverse_direction" : true,
				"randomdirection": true,
				"end_type": "Shrink",
				"offset": 0.7,
				"flow_length": 8,
				"flow_length_variation": 1,
				"gap": 4
			},
			"flowpath": {
				"texture": "res://packs/OuVKYXRN/textures/paths/Water-Path-2-d7fee9.png",
				"width": 268,
				"flow_density": 0.5,
				"randomdirection": true,
				"flow_length": 6,
				"flow_length_variation": 1,
				"num_flow_variants": 5,
				"min_distance_from_middle": 0.25,
				"min_distance_from_edge": 1.25
			}
		}
	},
	"swamp":{
		"make_swamp": true,
		"water_level": 0.8,
		"contour_filter": 4,
		"deep_color": "ff7ad9ef",
		"shallow_color": "457ad9ef",
		"blend_distance": 4.0,
		"smooth_water_edges": true,
		"water_edges": [
			{
				"texture": "res://packs/OuVKYXRN/textures/paths/Water-Path-2-white.png",
				"width": 75,
				"reverse_direction": true,
				"layer": 100
			},
			{
				"type": "Intermittent",
				"texture": "res://packs/OuVKYXRN/textures/paths/Water-Path-2-white.png",
				"width": 75,
				"reverse_direction": true,
				"flow_density": 3.0,
				"randomdirection": true,
				"end_type": "Shrink",
				"offset": 0.4,
				"flow_length": 2,
				"flow_length_variation": 1,
				"layer": 100,
				"gap": 0.5
			}

		],
		"water_pattern": {
			"use_water_pattern": true,
			"layer": 100,
			"rotation_deg": 0.0,
			"texture": "res://packs/OuVKYXRN/textures/patterns/normal/Sea Texture Light.webp",
			"colour": "96ffffff"
		}
	},
	"hills": {
		"make_hills": true,
		"min_length": 20,
		"hill_list": [
			{
				"level": 0.65,
				"texture": "res://packs/Vo6Bdqzw/textures/paths/grass path.webp",
				"type": "Intermittent",
				"width": 368,
				"reverse_direction": true,
				"flow_density": 0.4,
				"randomdirection": false,
				"end_type": "Fade",
				"flow_length": 8,
				"flow_length_variation": 2,
				"layer": 200,
				"gap": 0.5
				

			},
			{
				"level": 0.75,
				"texture": "res://packs/OuVKYXRN/textures/paths/Water-Pencil-Line.png",
				"width": 43,
				"reverse_direction": true,
				"smoothing_factor": 2,
				"layer": 100
			},
			{
				"level": 0.71,
				"texture": "res://packs/w2LGDZZq/textures/paths/Highland Rocks.png",
				"type": "Intermittent",
				"width": 4096,
				"reverse_direction": false,
				"flow_density": 0.4,
				"randomdirection": false,
				"end_type": "Shrink",
				"flow_length": 20,
				"flow_length_variation": 5,
				"layer": 100,
				"gap": 0.5
				
			},
			{
				"level": 0.5,
				"texture": "res://packs/w2LGDZZq/textures/paths/Highland Rocks.png",
				"type": "Intermittent",
				"width": 4096,
				"reverse_direction": false,
				"flow_density": 0.4,
				"randomdirection": false,
				"end_type": "Shrink",
				"flow_length": 20,
				"flow_length_variation": 5,
				"layer": 100,
				"gap": 0.5
			},
			{
				"level": 0.35,
				"texture": "res://packs/w2LGDZZq/textures/paths/Highland Rocks.png",
				"width": 4096,
				"reverse_direction": false,
				"smoothing_factor": 10,
				"layer": 200
			},
			{
				"level": 0.95,
				"type": "Intermittent",
				"texture": "res://packs/OuVKYXRN/textures/paths/Water-Path-2-white.png",
				"width": 120,
				"reverse_direction": true,
				"flow_density": 0.75,
				"randomdirection": true,
				"end_type": "Shrink",
				"offset": 0.4,
				"flow_length": 5,
				"flow_length_variation": 2,
				"layer": 100,
				"gap": 3
			},
			{
				"level": 0.99,

				"type": "Intermittent",
				"texture": "res://packs/OuVKYXRN/textures/paths/Water-Path-2-white.png",
				"width": 120,
				"reverse_direction": true,
				"flow_density": 0.75,
				"randomdirection": true,
				"end_type": "Shrink",
				"offset": 0.4,
				"flow_length": 5,
				"flow_length_variation": 2,
				"layer": 100,
				"gap": 3
				
			},
			{
				"level": 0.9,
				"type": "Intermittent",
				"texture": "res://packs/OuVKYXRN/textures/paths/Water-Path-2-white.png",
				"width": 120,
				"reverse_direction": true,
				"flow_density": 0.75,
				"randomdirection": true,
				"end_type": "Shrink",
				"offset": 0.4,
				"flow_length": 5,
				"flow_length_variation": 2,
				"layer": 100,
				"gap": 3
			},
			{
				"level": 0.84,
				"type": "Intermittent",
				"texture": "res://packs/OuVKYXRN/textures/paths/Water-Path-2-white.png",
				"width": 120,
				"reverse_direction": true,
				"flow_density": 0.75,
				"randomdirection": true,
				"end_type": "Shrink",
				"offset": 0.4,
				"flow_length": 5,
				"flow_length_variation": 2,
				"layer": 100,
				"gap": 3
			}

		]
	}



}
