{
	"header": {
		"config_name": "Crosshead Swamp",
		"version": "v1.0",
    "asset_style": "Crosshead"
  },
	"core": {
		"baseline_map_file": "baseline-CH.dungeondraft_map",
		"output_file": "test_output.dungeondraft_map",
		"map_size": [32,32]
	},

	"perlin_noise": {
		"permutation_size": 256,
		"size": 768,
		"granularity": 32,
		"octaves": 4,
		"store_file": "perlin_store.txt",
		"use_store": false,
		"output_perlin_ppm": false,
		"output_perlin_ppm_filename": "simpleperlin.ppm"
	},

	"poissondisk": {
		"max_tries": 30
	},

	"lighting": {
		"ambient_light": "ff3c3c3c",
		"draw_lights": true,
		"primary_light": {
			"light_intensity": 0.5,
			"light_colour": "96ae864c",
			"light_radius": 15,
			"light_density": 0.21,
			"edge_min_factor": 0.15
		},
		"perlin_level_lights": [
			{
				"light_intensity": 0.5,
				"light_colour": "ff4dd569",
				"light_radius": 5,
				"light_density": 0.4,
				"probability": 1.0,
				"upper_perlin_level": 1.0,
				"lower_perlin_level": 0.65
			}
		],
		"road_light": {
			"light_intensity": 0.5,
			"light_colour": "ffeaefca",
			"light_radius": 5,
			"light_density": 0.2
		}
	},

  "trees": {
    "tree_type_list": [
			{
      	"mindistance": 5,
				"probability": 0.9,
				"upper_perlin_level": 0.5,
				"lower_perlin_level": 0.0,
      	"randomrotation": true,
				"randommirror": true,
				"rotation_offset": 0.0,
				"size": [1.0,1.0],
				"layer": 400,
				"shadows": {
					"make_shadow": false,
					"type": "object",
					"texture_list": [

						"res://packs/jeeh3kgP/textures/objects/tree_shadow_09.png",
						"res://packs/jeeh3kgP/textures/objects/tree_shadow_10.png",
						"res://packs/jeeh3kgP/textures/objects/tree_shadow_11.png",
						"res://packs/jeeh3kgP/textures/objects/tree_shadow_12.png",
						"res://packs/jeeh3kgP/textures/objects/tree_shadow_13.png",
						"res://packs/jeeh3kgP/textures/objects/tree_shadow_14.png"

					],
					"randommirror": true,
					"size": 1.0,
					"place_under": true,
					"rotation_offset": 135.0,
					"centre_offset_dist": 1.75,
					"centre_offset_angle": 0.0
				},
				"lights":{
					"draw_lights": false,
					"light_intensity": 0.6,
					"light_colour": "ffeaefca",
					"light_radius": 1.5
				},
				"list": [
					"res://packs/jeeh3kgP/textures/objects/dead_tree_07.png",
					"res://packs/jeeh3kgP/textures/objects/dead_tree_08.png",
					"res://packs/jeeh3kgP/textures/objects/dead_tree_09.png",
					"res://packs/jeeh3kgP/textures/objects/dead_tree_10.png",
					"res://packs/jeeh3kgP/textures/objects/dead_tree_11.png",
					"res://packs/jeeh3kgP/textures/objects/dead_tree_12.png",
					"res://packs/jeeh3kgP/textures/objects/dead_tree_13.png"

				]

    	},
			{
				"mindistance": 2.8,
				"probability": 0.8,
				"upper_perlin_level": 0.5,
				"lower_perlin_level": 0.4,
				"randomrotation": true,
				"size": [1.0,1.0],
				"layer": 300,
				"shadows": {
					"make_shadow": false,
					"type": "object",
					"texture_list": [

						"res://packs/jeeh3kgP/textures/objects/tree_shadow_01.png",
						"res://packs/jeeh3kgP/textures/objects/tree_shadow_02.png",
						"res://packs/jeeh3kgP/textures/objects/tree_shadow_03.png",
						"res://packs/jeeh3kgP/textures/objects/tree_shadow_04.png",
						"res://packs/jeeh3kgP/textures/objects/tree_shadow_05.png",
						"res://packs/jeeh3kgP/textures/objects/tree_shadow_06.png",
						"res://packs/jeeh3kgP/textures/objects/tree_shadow_07.png",
						"res://packs/jeeh3kgP/textures/objects/tree_shadow_08.png"

					],
					"randommirror": true,
					"size": 1.0,
					"place_under": true,
					"rotation_offset": 180.0,
					"centre_offset_dist": 1.25,
					"centre_offset_angle": 0.0
				},
				"lights":{
					"draw_lights": false,
					"light_intensity": 0.6,
					"light_colour": "ffeaefca",
					"light_radius": 1.0
				},
				"list": [
					"res://packs/jeeh3kgP/textures/objects/dead_tree_01.png",
					"res://packs/jeeh3kgP/textures/objects/dead_tree_02.png",
					"res://packs/jeeh3kgP/textures/objects/dead_tree_03.png",
					"res://packs/jeeh3kgP/textures/objects/dead_tree_04.png",
					"res://packs/jeeh3kgP/textures/objects/dead_tree_05.png",
					"res://packs/jeeh3kgP/textures/objects/dead_tree_06.png"


				]

			}
		]
  },

	"clumps": [
			{
				"mindistance": 2.0,
				"probability": 0.8,
				"upper_perlin_level": 0.5,
				"lower_perlin_level": 0.2,
				"size": [1.0,1.0],
				"layer": 200,
				"primary_asset_list": [
					{
						"texture": "res://packs/jeeh3kgP/textures/objects/plant_08a.png",
						"num_secondary_assets_range": [2,4],
						"secondary_assets_dist_px": 150,
						"secondary_assets_dist_variation_px": 25,
						"randomrotation": true,
						"randommirror": true
					},
					{
						"texture": "res://packs/jeeh3kgP/textures/objects/plant_09a.png",
						"num_secondary_assets_range": [2,4],
						"secondary_assets_dist_px": 150,
						"secondary_assets_dist_variation_px": 25,
						"randomrotation": true,
						"randommirror": true
					}
				],
				"secondary_asset_layer": 200,
				"secondary_randomrotation": true,
				"secondary_randommirror": true,
				"secondary_asset_list": [
					"res://packs/jeeh3kgP/textures/objects/plant_03b.png",
					"res://packs/jeeh3kgP/textures/objects/plant_04b.png",
					"res://packs/jeeh3kgP/textures/objects/plant_05b.png",
					"res://packs/jeeh3kgP/textures/objects/plant_06b.png",
					"res://packs/jeeh3kgP/textures/objects/plant_07b.png",
					"res://packs/jeeh3kgP/textures/objects/plant_08b.png",
					"res://packs/jeeh3kgP/textures/objects/plant_03a.png",
					"res://packs/jeeh3kgP/textures/objects/plant_04a.png",
					"res://packs/jeeh3kgP/textures/objects/plant_05a.png",
					"res://packs/jeeh3kgP/textures/objects/plant_06a.png",
					"res://packs/jeeh3kgP/textures/objects/plant_07a.png",
					"res://packs/jeeh3kgP/textures/objects/plant_08a.png"
				]
			},
			{
				"mindistance": 2.0,
				"probability": 0.9,
				"upper_perlin_level": 0.47,
				"lower_perlin_level": 0.34,
				"size": [1.0,1.0],
				"layer": 100,
				"primary_asset_list": [
					{
						"texture": "res://packs/b0twaJ58/textures/objects/clover_01.png",
						"num_secondary_assets_range": [1,3],
						"secondary_assets_dist_px": 180,
						"secondary_assets_dist_variation_px": 25,
						"randomrotation": true,
						"randommirror": true
					},
					{
						"texture": "res://packs/b0twaJ58/textures/objects/clover_02.png",
						"num_secondary_assets_range": [1,3],
						"secondary_assets_dist_px": 180,
						"secondary_assets_dist_variation_px": 25,
						"randomrotation": true,
						"randommirror": true
					},
					{
						"texture": "res://packs/b0twaJ58/textures/objects/clover_03.png",
						"num_secondary_assets_range": [1,3],
						"secondary_assets_dist_px": 180,
						"secondary_assets_dist_variation_px": 25,
						"randomrotation": true,
						"randommirror": true
					}
				],
				"secondary_asset_layer": 100,
				"secondary_randomrotation": true,
				"secondary_randommirror": true,
				"secondary_asset_list": [
					"res://packs/b0twaJ58/textures/objects/clover_01.png",
					"res://packs/b0twaJ58/textures/objects/clover_02.png",
					"res://packs/b0twaJ58/textures/objects/clover_03.png"
				]
			}
	],

	"clutter": [
		{
			"mindistance": 1.0,
			"probability": 0.15,
			"upper_perlin_level": 0.5,
			"lower_perlin_level": 0.0,
			"randomrotation": true,
			"randommirror": true,
			"size": [1.0,1.0],
			"layer": 100,
			"list": [
				"res://packs/kwKf0idh/textures/objects/flowers_10.png",
				"res://packs/kwKf0idh/textures/objects/flowers_11.png",
				"res://packs/kwKf0idh/textures/objects/flowers_12.png",
				"res://packs/kwKf0idh/textures/objects/flowers_13.png",
				"res://packs/kwKf0idh/textures/objects/flowers_14.png",
				"res://packs/kwKf0idh/textures/objects/flowers_15.png",
				"res://packs/kwKf0idh/textures/objects/flowers_16.png",
				"res://packs/kwKf0idh/textures/objects/flowers_17.png",
				"res://packs/kwKf0idh/textures/objects/flowers_18.png",
				"res://packs/kwKf0idh/textures/objects/flowers_19.png",
				"res://packs/kwKf0idh/textures/objects/flowers_20.png",
				"res://packs/kwKf0idh/textures/objects/flowers_21.png",
				"res://packs/kwKf0idh/textures/objects/flowers_22.png",
				"res://packs/kwKf0idh/textures/objects/flowers_23.png",
				"res://packs/kwKf0idh/textures/objects/flowers_24.png",
				"res://packs/kwKf0idh/textures/objects/flowers_25.png",
				"res://packs/kwKf0idh/textures/objects/flowers_26.png",
				"res://packs/kwKf0idh/textures/objects/flowers_27.png",
				"res://packs/kwKf0idh/textures/objects/flowers_28.png",
				"res://packs/kwKf0idh/textures/objects/flowers_29.png",
				"res://packs/kwKf0idh/textures/objects/flowers_30.png",
				"res://packs/kwKf0idh/textures/objects/flowers_31.png",
				"res://packs/kwKf0idh/textures/objects/flowers_32.png",
				"res://packs/kwKf0idh/textures/objects/flowers_33.png"


			]

		},
		{
			"mindistance": 0.7,
			"probability": 1.0,
			"upper_perlin_level": 0.5,
			"lower_perlin_level": 0.4,
			"randomrotation": false,
			"randommirror": true,
			"size": [1.0,1.0],
			"layer": 100,
			"list": [
				"res://packs/xjCzavyl/textures/objects/grass_04.png",
				"res://packs/xjCzavyl/textures/objects/grass_05.png",
				"res://packs/xjCzavyl/textures/objects/grass_06.png",
				"res://packs/xjCzavyl/textures/objects/grass_07.png",
				"res://packs/xjCzavyl/textures/objects/grass_08.png",
				"res://packs/xjCzavyl/textures/objects/grass_09.png"


			]

		},
		{
			"mindistance": 0.9,
			"probability": 0.5,
			"upper_perlin_level": 0.5,
			"lower_perlin_level": 0.4,
			"randomrotation": false,
			"randommirror": true,
			"size": [1.0,1.0],
			"layer": 100,
			"list": [
				"res://packs/eMSwy6B7/textures/objects/fern_01.png",
				"res://packs/eMSwy6B7/textures/objects/fern_03.png",
				"res://packs/eMSwy6B7/textures/objects/fern_04.png",
				"res://packs/eMSwy6B7/textures/objects/fern_05.png",
				"res://packs/eMSwy6B7/textures/objects/fern_06.png"


			]

		},
		{
			"mindistance": 1.0,
			"probability": 0.45,
			"upper_perlin_level": 1.0,
			"lower_perlin_level": 0.65,
			"randomrotation": true,
			"randommirror": true,
			"size": [1.0,1.0],
			"layer": 100,
			"list": [
				"res://packs/eMSwy6B7/textures/objects/lilypad_01.png",
				"res://packs/eMSwy6B7/textures/objects/lilypad_02.png",
				"res://packs/eMSwy6B7/textures/objects/lilypad_03.png",
				"res://packs/eMSwy6B7/textures/objects/lilypad_04.png",
				"res://packs/eMSwy6B7/textures/objects/lilypad_05.png",
				"res://packs/eMSwy6B7/textures/objects/lilypad_06.png",
				"res://packs/eMSwy6B7/textures/objects/lilypad_07.png",
				"res://packs/eMSwy6B7/textures/objects/lilypad_08.png",
				"res://packs/eMSwy6B7/textures/objects/lilypad_09.png",
				"res://packs/eMSwy6B7/textures/objects/lilypad_10.png",
				"res://packs/eMSwy6B7/textures/objects/lilypad_11.png",
				"res://packs/eMSwy6B7/textures/objects/lilypad_12.png",
				"res://packs/eMSwy6B7/textures/objects/lilypad_13.png",
				"res://packs/eMSwy6B7/textures/objects/lilypad_14.png",
				"res://packs/eMSwy6B7/textures/objects/lilypad_15.png",
				"res://packs/eMSwy6B7/textures/objects/lilypad_16.png",
				"res://packs/eMSwy6B7/textures/objects/lilypad_17.png"


			]

		},

		{
			"mindistance": 1.5,
			"probability": 1.0,
			"upper_perlin_level": 1.0,
			"lower_perlin_level": 0.6,
			"randomrotation": true,
			"randommirror": true,
			"size": [1.0,1.0],
			"layer": 100,
			"custom_colour_list":["9693c0a2"],
			"list": [
				"res://packs/Ac6fobYn/textures/objects/bubbles_01.png",
				"res://packs/Ac6fobYn/textures/objects/bubbles_02.png",
				"res://packs/Ac6fobYn/textures/objects/bubbles_03.png",
				"res://packs/Ac6fobYn/textures/objects/bubbles_04.png",
				"res://packs/Ac6fobYn/textures/objects/bubbles_05.png",
				"res://packs/Ac6fobYn/textures/objects/bubbles_06.png",
				"res://packs/Ac6fobYn/textures/objects/bubbles_07.png",
				"res://packs/Ac6fobYn/textures/objects/bubbles_08.png"


			]

		},
		{
			"mindistance": 6,
			"probability": 0.6,
			"upper_perlin_level": 1.0,
			"lower_perlin_level": 0.0,
			"randomrotation": true,
			"randommirror": true,
			"size": [8.0,8.0],
			"layer": 700,
			"custom_colour_list":["2fffffff"],
			"list": [
				"res://packs/H0hDYdyG/textures/objects/AoA_Clouds/colorable/CloudsC-1.png",
				"res://packs/H0hDYdyG/textures/objects/AoA_Clouds/colorable/CloudsC-2.png",
				"res://packs/H0hDYdyG/textures/objects/AoA_Clouds/colorable/CloudsC-3.png",
				"res://packs/H0hDYdyG/textures/objects/AoA_Clouds/colorable/CloudsC-4.png",
				"res://packs/H0hDYdyG/textures/objects/AoA_Clouds/colorable/CloudsC-5.png",
				"res://packs/H0hDYdyG/textures/objects/AoA_Clouds/colorable/CloudsC-6.png",
				"res://packs/H0hDYdyG/textures/objects/AoA_Clouds/colorable/CloudsC-7.png",
				"res://packs/H0hDYdyG/textures/objects/AoA_Clouds/colorable/CloudsC-8.png"


			]

		},
		{
			"mindistance": 5,
			"probability": 0.7,
			"upper_perlin_level": 1.0,
			"lower_perlin_level": 0.0,
			"randomrotation": true,
			"randommirror": true,
			"size": [8.0,8.0],
			"layer": 700,
			"custom_colour_list":["20ffffff"],
			"list": [
				"res://packs/H0hDYdyG/textures/objects/AoA_Clouds/colorable/CloudsC-1.png",
				"res://packs/H0hDYdyG/textures/objects/AoA_Clouds/colorable/CloudsC-2.png",
				"res://packs/H0hDYdyG/textures/objects/AoA_Clouds/colorable/CloudsC-3.png",
				"res://packs/H0hDYdyG/textures/objects/AoA_Clouds/colorable/CloudsC-4.png",
				"res://packs/H0hDYdyG/textures/objects/AoA_Clouds/colorable/CloudsC-5.png",
				"res://packs/H0hDYdyG/textures/objects/AoA_Clouds/colorable/CloudsC-6.png",
				"res://packs/H0hDYdyG/textures/objects/AoA_Clouds/colorable/CloudsC-7.png",
				"res://packs/H0hDYdyG/textures/objects/AoA_Clouds/colorable/CloudsC-8.png"


			]

		}



	],

	"terrain": {
		"make_terrain": true,
		"boundaries": [240,170,125],
		"weights": [0.3,0.6,0.4,0.7],
		"blend_distances": [10,10,20],

		"slots": [
			{
				"name": "Highest under trees",
				"id": 0,
				"overwrite_slot": true,
				"colour": [255,60,60],
				"texture": "res://packs/eMSwy6B7/textures/terrain/clover.png"
			},
			{
				"name": "Under trees",
				"id": 1,
				"overwrite_slot": true,
				"colour": [255,215,100],
				"texture": "res://packs/xjCzavyl/textures/terrain/ch_moss.png"
			},
			{
				"name": "Primary Open Space",
				"id": 2,
				"overwrite_slot": true,
				"colour": [120,255,120],
				"texture": "res://packs/xjCzavyl/textures/terrain/ch_grass.png"
			},
			{
				"name": "Low ground",
				"id": 3,
				"overwrite_slot": true,
				"colour": [120,120,255],
				"texture": "res://packs/jeeh3kgP/textures/terrain/ch_dirtdark_detail.png"
			}
		]
	},
	"road": {
		"make_road": false,
		"step_distance": 3,
		"progress_weight": 0.25,
		"fov_angle": 60.0,
		"margin_percentage": 0.15,
		"width": 5,
		"bezier_density": 0.1,
		"edge": {
			"roadedge_width": 1.5,
			"edge_terrain_value": 90,
			"edge_path": {
				"make_path": false,
				"texture": "res://packs/eMSwy6B7/textures/paths/terrain_grassmix_path.png",
				"width": 302,
				"reverse_direction": true
			},
			"under_edge_path": {
				"make_path": false,
				"texture": "res://packs/BYcn0rLD/textures/paths/terrain_grass_low.png",
				"width": 173,
				"reverse_direction": true,
				"offset": 0.2
			}
		},
		"terrain": {
			"vary_road_terrain": true,
			"edge_terrain_1_value_255": 240,
			"terrain_1_lowest_value": 110,
			"terrain_1_highest_value": 160
		},
		"river": {
			"make_river": true,
			"deep_color": "ff2e6d27",
			"shallow_color": "c898d49a",
			"blend_distance": 1.0,
			"water_pattern": {
				"use_water_pattern": true,
				"layer": 100,
				"rotation_deg": 0.0,
				"texture": "res://packs/eMSwy6B7/textures/patterns/normal/water_ripples.png",
				"colour": "52ffffff"
			},
			"edge_flowpath": {
				"texture": "res://packs/BYcn0rLD/textures/paths/water_lines_03.png",
				"width": 75,
				"offset": 0.45
			},
			"side_flowpath": {
				"texture": "res://packs/BYcn0rLD/textures/paths/water_lines_03.png",
				"width": 75,
				"flow_density": 0.5,
				"randomdirection": true,
				"end_type": "Shrink",
				"offset": 0.85,
				"flow_length": 8,
				"flow_length_variation": 1,
				"gap": 4
			},
			"flowpath": {
				"texture": "res://packs/BYcn0rLD/textures/paths/water_lines_03.png",
				"width": 50,
				"flow_density": 0.8,
				"randomdirection": true,
				"flow_length": 4,
				"flow_length_variation": 1,
				"num_flow_variants": 6,
				"min_distance_from_middle": 0.3,
				"min_distance_from_edge": 1.25
			}
		}
	},

	"swamp":{
		"make_swamp": true,
		"water_level": 0.5,
		"contour_filter": 4,
		"deep_color": "ff2e6d27",
		"shallow_color": "c898d49a",
		"blend_distance": 2.0,
		"smooth_water_edges": true,
		"water_edges": [
			{
				"texture": "res://packs/Ac6fobYn/textures/paths/water_greenlines_02.png",
				"width": 90,
				"reverse_direction": true,
				"offset": 0.3,
				"layer": 100
			},
			{
				"texture": "res://packs/Ac6fobYn/textures/paths/water_greenlines_04.png",
				"width": 50,
				"reverse_direction": true,
				"layer": 100
			}

		]
	}

}
